{
    "/js/app.js": "/js/app.js?id=8462f1d404cea8cdcf26",
    "/css/app.css": "/css/app.css?id=dcee0fc8858b23639e77",
    "/css/auth.css": "/css/auth.css?id=8f1b7b2f493be6756564",
    "/js/app.js.map": "/js/app.js.map?id=b6f0f8db53422622fc43",
    "/css/app.css.map": "/css/app.css.map?id=970213d71ad49b1f5ac5",
    "/css/auth.css.map": "/css/auth.css.map?id=b614c2f9c4791c8616b2",
    "/js/vendor.js": "/js/vendor.js?id=1dd22d0981d6330a3046",
    "/js/vendor.js.map": "/js/vendor.js.map?id=c2643acf7bea1d3247b7",
    "/js/manifest.js": "/js/manifest.js?id=d64713044d4b02b1808b",
    "/js/manifest.js.map": "/js/manifest.js.map?id=e9107b77c26f20d6749e"
}
